…
### Ex. 2

#### Code

``` r
pac_all <- pac_all %>% 
  separate(country_parent, into = c("country", "parent"), sep = "/", extra = "merge")
```

``` r
pac_all
```

    ## # A tibble: 2,151 x 7
    ##    name                      country    parent        total  dems   repubs  year
    ##    <chr>                     <chr>      <chr>         <chr>  <chr>  <chr>  <dbl>
    ##  1 7-Eleven                  Japan      Ito-Yokado    $8,500 $1,500 $7,000  2000
    ##  2 ABB Group                 Switzerla… Asea Brown B… $46,0… $17,0… $28,5…  2000
    ##  3 Accenture                 Bermuda    Accenture plc $75,9… $23,0… $52,9…  2000
    ##  4 ACE INA                   UK         ACE Group     $38,5… $12,5… $26,0…  2000
    ##  5 Acuson Corp (Siemens AG)  Germany    Siemens AG    $2,000 $2,000 $0      2000
    ##  6 Adtranz (DaimlerChrysler) Germany    DaimlerChrys… $10,5… $10,0… $500    2000
    ##  7 AE Staley Manufacturing … UK         Tate & Lyle   $24,0… $10,0… $14,0…  2000
    ##  8 AEGON USA (AEGON NV)      Netherlan… Aegon NV      $58,2… $10,5… $47,7…  2000
    ##  9 AIM Management Group      UK         AMVESCAP      $25,0… $10,0… $15,0…  2000
    ## 10 Air Liquide America       France     L'Air Liquid… $0     $0     $0      2000
    ## # … with 2,141 more rows
…
pac_all_clean <- pac_all %>% 
  mutate(
    total = parse_currency(total),
    dems = parse_currency(dems),
    repubs = parse_currency(repubs)
  )
```

``` r
pac_all_clean
```

    ## # A tibble: 2,151 x 7
    ##    name                        country   parent         total  dems repubs  year
    ##    <chr>                       <chr>     <chr>          <dbl> <dbl>  <dbl> <dbl>
    ##  1 7-Eleven                    Japan     Ito-Yokado      8500  1500   7000  2000
    ##  2 ABB Group                   Switzerl… Asea Brown Bo… 46000 17000  28500  2000
    ##  3 Accenture                   Bermuda   Accenture plc  75984 23000  52984  2000
    ##  4 ACE INA                     UK        ACE Group      38500 12500  26000  2000
    ##  5 Acuson Corp (Siemens AG)    Germany   Siemens AG      2000  2000      0  2000
    ##  6 Adtranz (DaimlerChrysler)   Germany   DaimlerChrysl… 10500 10000    500  2000
    ##  7 AE Staley Manufacturing (T… UK        Tate & Lyle    24000 10000  14000  2000
    ##  8 AEGON USA (AEGON NV)        Netherla… Aegon NV       58250 10500  47750  2000
    ##  9 AIM Management Group        UK        AMVESCAP       25000 10000  15000  2000
    ## 10 Air Liquide America         France    L'Air Liquide…     0     0      0  2000
    ## # … with 2,141 more rows
…
